2022-04-13 21:48:40,baseAPI(line:80),INFO|模块名:Login
2022-04-13 21:48:40,baseAPI(line:81),INFO|接口名:login
2022-04-13 21:48:40,baseAPI(line:82),INFO|请求的url:http://121.41.14.39:8082/account/sLogin
2022-04-13 21:48:40,baseAPI(line:83),INFO|请求方法:POST
2022-04-13 21:48:40,baseAPI(line:84),INFO|请求体:username=th0198&password=c607d58e3618832f937d80d500a6046c
2022-04-13 21:48:40,baseAPI(line:85),INFO|响应体:{'code': 20000, 'data': {'token': 'eyJ0eXAiOiJKV1QiLCJhbGciOiJIUzI1NiJ9.eyJleHAiOjE2NDk4NjEzMTksInVzZXJJZCI6MTA3MDIsInVzZXJuYW1lIjoidGgwMTk4In0.9vlEGItSRDo17U26jbI4_Pd1XNkGW9TMTrYnjEX-88Y'}, 'flag': '松勤教育', 'msg': '成功', 'success': False}
2022-04-13 21:48:40,apiAssert(line:45),INFO|登录接口断言,断言类型:==,断言结果:验证通过，预期结果:成功,实际结果:成功
2022-04-13 21:48:40,baseAPI(line:80),INFO|模块名:Login
2022-04-13 21:48:40,baseAPI(line:81),INFO|接口名:login
2022-04-13 21:48:40,baseAPI(line:82),INFO|请求的url:http://121.41.14.39:8082/account/sLogin
2022-04-13 21:48:40,baseAPI(line:83),INFO|请求方法:POST
2022-04-13 21:48:40,baseAPI(line:84),INFO|请求体:username=th0198&password=d41d8cd98f00b204e9800998ecf8427e
2022-04-13 21:48:40,baseAPI(line:85),INFO|响应体:{'code': 9999, 'data': '', 'flag': '松勤教育', 'msg': '输入的密码错误!', 'success': False}
2022-04-13 21:48:40,apiAssert(line:45),INFO|登录接口断言,断言类型:==,断言结果:验证通过，预期结果:输入的密码错误!,实际结果:输入的密码错误!
2022-04-13 21:48:40,baseAPI(line:80),INFO|模块名:Login
2022-04-13 21:48:40,baseAPI(line:81),INFO|接口名:login
2022-04-13 21:48:40,baseAPI(line:82),INFO|请求的url:http://121.41.14.39:8082/account/sLogin
2022-04-13 21:48:40,baseAPI(line:83),INFO|请求方法:POST
2022-04-13 21:48:40,baseAPI(line:84),INFO|请求体:username=&password=c607d58e3618832f937d80d500a6046c
2022-04-13 21:48:40,baseAPI(line:85),INFO|响应体:{'code': 9999, 'data': '', 'flag': '松勤教育', 'msg': '该用户不存在!', 'success': False}
2022-04-13 21:48:40,apiAssert(line:45),INFO|登录接口断言,断言类型:==,断言结果:验证通过，预期结果:该用户不存在!,实际结果:该用户不存在!
2022-04-13 21:48:40,baseAPI(line:80),INFO|模块名:Login
2022-04-13 21:48:40,baseAPI(line:81),INFO|接口名:login
2022-04-13 21:48:40,baseAPI(line:82),INFO|请求的url:http://121.41.14.39:8082/account/sLogin
2022-04-13 21:48:40,baseAPI(line:83),INFO|请求方法:POST
2022-04-13 21:48:40,baseAPI(line:84),INFO|请求体:username=&password=d41d8cd98f00b204e9800998ecf8427e
2022-04-13 21:48:40,baseAPI(line:85),INFO|响应体:{'code': 9999, 'data': '', 'flag': '松勤教育', 'msg': '该用户不存在!', 'success': False}
2022-04-13 21:48:40,apiAssert(line:45),INFO|登录接口断言,断言类型:==,断言结果:验证通过，预期结果:该用户不存在!,实际结果:该用户不存在!
2022-04-13 21:48:40,baseAPI(line:80),INFO|模块名:Login
2022-04-13 21:48:40,baseAPI(line:81),INFO|接口名:login
2022-04-13 21:48:40,baseAPI(line:82),INFO|请求的url:http://121.41.14.39:8082/account/sLogin
2022-04-13 21:48:40,baseAPI(line:83),INFO|请求方法:POST
2022-04-13 21:48:40,baseAPI(line:84),INFO|请求体:username=th0198&password=68053af2923e00204c3ca7c6a3150cf7
2022-04-13 21:48:40,baseAPI(line:85),INFO|响应体:{'code': 9999, 'data': '', 'flag': '松勤教育', 'msg': '输入的密码错误!', 'success': False}
2022-04-13 21:48:40,apiAssert(line:45),INFO|登录接口断言,断言类型:==,断言结果:验证通过，预期结果:输入的密码错误!,实际结果:输入的密码错误!
2022-04-13 21:48:41,baseAPI(line:80),INFO|模块名:Login
2022-04-13 21:48:41,baseAPI(line:81),INFO|接口名:login
2022-04-13 21:48:41,baseAPI(line:82),INFO|请求的url:http://121.41.14.39:8082/account/sLogin
2022-04-13 21:48:41,baseAPI(line:83),INFO|请求方法:POST
2022-04-13 21:48:41,baseAPI(line:84),INFO|请求体:username=abcde&password=c607d58e3618832f937d80d500a6046c
2022-04-13 21:48:41,baseAPI(line:85),INFO|响应体:{'code': 9999, 'data': '', 'flag': '松勤教育', 'msg': '该用户不存在!', 'success': False}
2022-04-13 21:48:41,apiAssert(line:45),INFO|登录接口断言,断言类型:==,断言结果:验证通过，预期结果:该用户不存在!,实际结果:该用户不存在!
