写一个号段筛选程序,需求如下:
用户从控制台输入一个手机号，判断出运营商(移动（假设号段是130-150）、联通（假设是151-170）、电信（假设是171-199）),如果用户输入的位数不对，提示用户位数有误;如果用户输入非数字，提示有非法字符



































input1=input('请输入一个手机号:  ')
if not input1.isdigit():  #判断用户输入的是否不是纯数字,如果不是,则提示用户输入的值不正确
    print('您输入的不是数字')
else:
    if len(input1)!=11:  #如果用户输入的位数不是11位,提示位数不正确
        print('位数不正确')
    else:
        num1=int(input1[0:3])  #取得手机号的前三位,并转为int型
        if 130<=num1<=150:
            print('移动')
        elif 151<=num1<=170:
            print('联通')
        elif 171<=num1<=190:
            print('电信')
        else:
            print('您输入的手机号不属于任何运营商')